<mxfile host="app.diagrams.net" modified="2024-02-03T19:51:35.372Z" agent="Mozilla/5.0 (Windows NT 10.0; Win64; x64) AppleWebKit/537.36 (KHTML, like Gecko) Chrome/121.0.0.0 Safari/537.36" version="23.1.1" etag="5TZOx-R7RV-4lS8gr5nc" type="gitlab">
  <diagram name="Page-1" id="jmNKMua2wDsLQc1sMTPD">
    <mxGraphModel>
      <root>
        <mxCell id="0" />
        <mxCell id="1" parent="0" />
      </root>
    </mxGraphModel>
  </diagram>
</mxfile>
